module gitlab.com/akita/mem

require (
	github.com/golang/mock v1.3.1
	github.com/golang/protobuf v1.3.2 // indirect
	github.com/onsi/ginkgo v1.8.0
	github.com/onsi/gomega v1.5.0
	gitlab.com/akita/akita v1.3.2
	gitlab.com/akita/util v0.1.7
	golang.org/x/net v0.0.0-20190813141303-74dc4d7220e7 // indirect
	golang.org/x/sys v0.0.0-20190813064441-fde4db37ae7a // indirect
)
