module gitlab.com/akita/vis

go 1.12

require (
	github.com/go-stack/stack v1.8.0 // indirect
	github.com/golang/snappy v0.0.1 // indirect
	github.com/google/go-cmp v0.2.0 // indirect
	github.com/mongodb/mongo-go-driver v1.0.0
	github.com/rs/xid v1.2.1
	github.com/stretchr/testify v1.3.0 // indirect
	github.com/tidwall/pretty v0.0.0-20190325153808-1166b9ac2b65 // indirect
	github.com/xdg/scram v0.0.0-20180814205039-7eeb5667e42c // indirect
	github.com/xdg/stringprep v1.0.0 // indirect
	gitlab.com/akita/akita v1.3.2
	go.mongodb.org/mongo-driver v1.0.0
	golang.org/x/crypto v0.0.0-20190403202508-8e1b8d32e692 // indirect
	golang.org/x/sync v0.0.0-20190227155943-e225da77a7e6 // indirect
)
